{"version":"1.2.4","db_type":"websql","start_time":"2015-12-29T22:09:43.278Z","db_info":{"doc_count":5,"update_seq":5,"sqlite_plugin":false,"websql_encoding":"UTF-8","db_name":"pouchdb_userSync1","auto_compaction":true,"adapter":"websql"}}
{"docs":[{"name":"user a1","profession":"pro a1","_id":"11f1c788-5ca3-44ad-a92a-4c1e126157f5","_rev":"1-83ec5353da3679861e25a2d1717cd995"}]}
{"seq":1}
{"docs":[{"name":"user a2","profession":"pro a2","_id":"13312fd2-14ad-4d7b-bb84-5e6af8d16076","_rev":"1-2fef5f76d2b7e08959fc627bc40cd87e"}]}
{"seq":2}
{"docs":[{"name":"user a3","profession":"pro a3","_id":"0ba52911-ac1f-4a05-aa13-2b27b78fb770","_rev":"1-cf1e47342d5be2aee4f0313818e300e0"},{"name":"user a4","profession":"pro a4","_id":"b0845bcc-a364-4bcd-a686-b525373638d6","_rev":"1-84fc87c68bbc08cb193c98f17bc20bea"},{"name":"user a3","profession":"pro a3","_id":"b2dd7fd0-2763-4669-8ea0-b794e306124f","_rev":"1-36d5889baba3a7ade57ea98bc42e3d86"}]}
{"seq":5}
